@startuml
'https://plantuml.com/component-diagram


node "micro-servers" {
  HTTP - [zipkin-client-1]
  [zipkin-client-2]
}

node "zipkin-servers" {
  [zipkin-server]
}

database "MySql/ES/..." {
  frame "Foo" {
    [database]
  }
}

[zipkin-client-1] --> [zipkin-client-2]
[zipkin-client-1] --> [zipkin-server]
[zipkin-client-2] --> [zipkin-server]
[zipkin-server] --> [database]

@enduml